expercise3
…
wildschwein_BE$TierName |> unique()

[1] "Sabi" "Rosa" "Ruth"

For this, we will only work with the data of “sabi”

sabi <- wildschwein_BE |> 
  filter(TierName == "Sabi") |> 
  filter(DatetimeUTC >= as.POSIXct("2015-07-01", tz = "UTC"), 
         DatetimeUTC < as.POSIXct("2015-07-03", tz = "UTC"))

sabi

# A tibble: 192 × 6
   TierID TierName CollarID DatetimeUTC                E        N
   <chr>  <chr>       <dbl> <dttm>                 <dbl>    <dbl>
 1 002A   Sabi        12275 2015-07-01 00:00:10 2570532. 1205044.
 2 002A   Sabi        12275 2015-07-01 00:15:14 2570530. 1205059.
 3 002A   Sabi        12275 2015-07-01 00:30:11 2570676. 1205112.
 4 002A   Sabi        12275 2015-07-01 00:45:43 2570707. 1205057.
 5 002A   Sabi        12275 2015-07-01 01:00:20 2570656. 1205103.
 6 002A   Sabi        12275 2015-07-01 01:15:59 2570850. 1205038.
 7 002A   Sabi        12275 2015-07-01 01:31:02 2570819. 1205047.
 8 002A   Sabi        12275 2015-07-01 01:45:37 2570863. 1205149.
 9 002A   Sabi        12275 2015-07-01 02:00:17 2570863. 1205176.
10 002A   Sabi        12275 2015-07-01 02:15:13 2570891. 1205171.
# … with 182 more rows
…
In this example we used the mean as the threshold (below the mean = static = TRUE).

sabi <- sabi |>
    ungroup() |>
    mutate(static = stepMean < mean(stepMean, na.rm = TRUE))

sabi

# A tibble: 192 × 12
   TierID TierName CollarID DatetimeUTC                E       N n_plus1 n_plus2
   <chr>  <chr>       <dbl> <dttm>                 <dbl>   <dbl>   <dbl>   <dbl>
 1 002A   Sabi        12275 2015-07-01 00:00:10 2570532.  1.21e6    15.4   159. 
 2 002A   Sabi        12275 2015-07-01 00:15:14 2570530.  1.21e6   155.    177. 
 3 002A   Sabi        12275 2015-07-01 00:30:11 2570676.  1.21e6    63.1    22.0
 4 002A   Sabi        12275 2015-07-01 00:45:43 2570707.  1.21e6    68.3   144. 
 5 002A   Sabi        12275 2015-07-01 01:00:20 2570656.  1.21e6   204.    173. 
 6 002A   Sabi        12275 2015-07-01 01:15:59 2570850.  1.21e6    31.7   112. 
 7 002A   Sabi        12275 2015-07-01 01:31:02 2570819.  1.21e6   112.    137. 
 8 002A   Sabi        12275 2015-07-01 01:45:37 2570863.  1.21e6    27.1    35.5
 9 002A   Sabi        12275 2015-07-01 02:00:17 2570863.  1.21e6    29.2    45.7
10 002A   Sabi        12275 2015-07-01 02:15:13 2570891.  1.21e6    35.5    37.7
# … with 182 more rows, and 4 more variables: n_minus1 <dbl>, n_minus2 <dbl>,
#   stepMean <dbl>, static <lgl>
…
If the result looks good, filter out the static segments:

sabi_filter <- sabi |>
    filter(!static)

sabi_filter

# A tibble: 54 × 12
   TierID TierName CollarID DatetimeUTC                E       N n_plus1 n_plus2
   <chr>  <chr>       <dbl> <dttm>                 <dbl>   <dbl>   <dbl>   <dbl>
 1 002A   Sabi        12275 2015-07-01 00:30:11 2570676.  1.21e6   63.1     22.0
 2 002A   Sabi        12275 2015-07-01 00:45:43 2570707.  1.21e6   68.3    144. 
 3 002A   Sabi        12275 2015-07-01 01:00:20 2570656.  1.21e6  204.     173. 
 4 002A   Sabi        12275 2015-07-01 01:15:59 2570850.  1.21e6   31.7    112. 
 5 002A   Sabi        12275 2015-07-01 01:31:02 2570819.  1.21e6  112.     137. 
 6 002A   Sabi        12275 2015-07-01 01:45:37 2570863.  1.21e6   27.1     35.5
 7 002A   Sabi        12275 2015-07-01 02:45:13 2570863.  1.21e6    7.64   204. 
 8 002A   Sabi        12275 2015-07-01 03:00:09 2570856.  1.21e6  199.     433. 
 9 002A   Sabi        12275 2015-07-01 03:15:14 2570687.  1.21e6  249.     835. 
10 002A   Sabi        12275 2015-07-01 03:30:12 2570439.  1.21e6  591.     690. 
# … with 44 more rows, and 4 more variables: n_minus1 <dbl>, n_minus2 <dbl>,
#   stepMean <dbl>, static <lgl>
…
